%YAML 1.1
%TAG !u! tag:unity3d.com,2011:
--- !u!74 &7400000
AnimationClip:
  m_ObjectHideFlags: 0
  m_CorrespondingSourceObject: {fileID: 0}
  m_PrefabInstance: {fileID: 0}
  m_PrefabAsset: {fileID: 0}
  m_Name: RunAnimation
  serializedVersion: 6
  m_Legacy: 0
  m_Compressed: 0
  m_UseHighQualityCurve: 1
  m_RotationCurves: []
  m_CompressedRotationCurves: []
  m_EulerCurves: []
  m_PositionCurves: []
  m_ScaleCurves: []
  m_FloatCurves: []
  m_PPtrCurves:
  - curve:
    - time: 0
      value: {fileID: -111813453, guid: 5581b7ff6beb71947ada34d04c97088e, type: 3}
    - time: 0.083333336
      value: {fileID: 186856570, guid: 5581b7ff6beb71947ada34d04c97088e, type: 3}
    - time: 0.16666667
      value: {fileID: 380797720, guid: 5581b7ff6beb71947ada34d04c97088e, type: 3}
    - time: 0.25
      value: {fileID: -122687873, guid: 5581b7ff6beb71947ada34d04c97088e, type: 3}
    - time: 0.33333334
      value: {fileID: -1470846441, guid: 5581b7ff6beb71947ada34d04c97088e, type: 3}
    - time: 0.41666666
      value: {fileID: -1669437997, guid: 5581b7ff6beb71947ada34d04c97088e, type: 3}
    - time: 0.5
      value: {fileID: 340378451, guid: 5581b7ff6beb71947ada34d04c97088e, type: 3}
    - time: 0.5833333
      value: {fileID: 762244627, guid: 5581b7ff6beb71947ada34d04c97088e, type: 3}
    - time: 0.6666667
      value: {fileID: 714754648, guid: 5581b7ff6beb71947ada34d04c97088e, type: 3}
    - time: 0.75
      value: {fileID: -1746623779, guid: 5581b7ff6beb71947ada34d04c97088e, type: 3}
    - time: 0.8333333
      value: {fileID: 502820470, guid: 5581b7ff6beb71947ada34d04c97088e, type: 3}
    - time: 0.9166667
      value: {fileID: -649395972, guid: 5581b7ff6beb71947ada34d04c97088e, type: 3}
    - time: 1
      value: {fileID: -976711364, guid: 5581b7ff6beb71947ada34d04c97088e, type: 3}
    - time: 1.0833334
      value: {fileID: -805138816, guid: 5581b7ff6beb71947ada34d04c97088e, type: 3}
    - time: 1.1666666
      value: {fileID: 1236634208, guid: 5581b7ff6beb71947ada34d04c97088e, type: 3}
    - time: 1.25
      value: {fileID: -1498929173, guid: 5581b7ff6beb71947ada34d04c97088e, type: 3}
    - time: 1.3333334
      value: {fileID: -61621429, guid: 5581b7ff6beb71947ada34d04c97088e, type: 3}
    - time: 1.4166666
      value: {fileID: -1092749969, guid: 5581b7ff6beb71947ada34d04c97088e, type: 3}
    - time: 1.5
      value: {fileID: 306657913, guid: 5581b7ff6beb71947ada34d04c97088e, type: 3}
    - time: 1.5833334
      value: {fileID: -97372052, guid: 5581b7ff6beb71947ada34d04c97088e, type: 3}
    - time: 1.6666666
      value: {fileID: -330630877, guid: 5581b7ff6beb71947ada34d04c97088e, type: 3}
    - time: 1.75
      value: {fileID: 1885990454, guid: 5581b7ff6beb71947ada34d04c97088e, type: 3}
    - time: 1.8333334
      value: {fileID: -1944754159, guid: 5581b7ff6beb71947ada34d04c97088e, type: 3}
    - time: 1.9166666
      value: {fileID: -310085741, guid: 5581b7ff6beb71947ada34d04c97088e, type: 3}
    attribute: m_Sprite
    path: 
    classID: 212
    script: {fileID: 0}
  m_SampleRate: 12
  m_WrapMode: 0
  m_Bounds:
    m_Center: {x: 0, y: 0, z: 0}
    m_Extent: {x: 0, y: 0, z: 0}
  m_ClipBindingConstant:
    genericBindings:
    - serializedVersion: 2
      path: 0
      attribute: 0
      script: {fileID: 0}
      typeID: 212
      customType: 23
      isPPtrCurve: 1
    pptrCurveMapping:
    - {fileID: -111813453, guid: 5581b7ff6beb71947ada34d04c97088e, type: 3}
    - {fileID: 186856570, guid: 5581b7ff6beb71947ada34d04c97088e, type: 3}
    - {fileID: 380797720, guid: 5581b7ff6beb71947ada34d04c97088e, type: 3}
    - {fileID: -122687873, guid: 5581b7ff6beb71947ada34d04c97088e, type: 3}
    - {fileID: -1470846441, guid: 5581b7ff6beb71947ada34d04c97088e, type: 3}
    - {fileID: -1669437997, guid: 5581b7ff6beb71947ada34d04c97088e, type: 3}
    - {fileID: 340378451, guid: 5581b7ff6beb71947ada34d04c97088e, type: 3}
    - {fileID: 762244627, guid: 5581b7ff6beb71947ada34d04c97088e, type: 3}
    - {fileID: 714754648, guid: 5581b7ff6beb71947ada34d04c97088e, type: 3}
    - {fileID: -1746623779, guid: 5581b7ff6beb71947ada34d04c97088e, type: 3}
    - {fileID: 502820470, guid: 5581b7ff6beb71947ada34d04c97088e, type: 3}
    - {fileID: -649395972, guid: 5581b7ff6beb71947ada34d04c97088e, type: 3}
    - {fileID: -976711364, guid: 5581b7ff6beb71947ada34d04c97088e, type: 3}
    - {fileID: -805138816, guid: 5581b7ff6beb71947ada34d04c97088e, type: 3}
    - {fileID: 1236634208, guid: 5581b7ff6beb71947ada34d04c97088e, type: 3}
    - {fileID: -1498929173, guid: 5581b7ff6beb71947ada34d04c97088e, type: 3}
    - {fileID: -61621429, guid: 5581b7ff6beb71947ada34d04c97088e, type: 3}
    - {fileID: -1092749969, guid: 5581b7ff6beb71947ada34d04c97088e, type: 3}
    - {fileID: 306657913, guid: 5581b7ff6beb71947ada34d04c97088e, type: 3}
    - {fileID: -97372052, guid: 5581b7ff6beb71947ada34d04c97088e, type: 3}
    - {fileID: -330630877, guid: 5581b7ff6beb71947ada34d04c97088e, type: 3}
    - {fileID: 1885990454, guid: 5581b7ff6beb71947ada34d04c97088e, type: 3}
    - {fileID: -1944754159, guid: 5581b7ff6beb71947ada34d04c97088e, type: 3}
    - {fileID: -310085741, guid: 5581b7ff6beb71947ada34d04c97088e, type: 3}
  m_AnimationClipSettings:
    serializedVersion: 2
    m_AdditiveReferencePoseClip: {fileID: 0}
    m_AdditiveReferencePoseTime: 0
    m_StartTime: 0
    m_StopTime: 2
    m_OrientationOffsetY: 0
    m_Level: 0
    m_CycleOffset: 0
    m_HasAdditiveReferencePose: 0
    m_LoopTime: 1
    m_LoopBlend: 0
    m_LoopBlendOrientation: 0
    m_LoopBlendPositionY: 0
    m_LoopBlendPositionXZ: 0
    m_KeepOriginalOrientation: 0
    m_KeepOriginalPositionY: 1
    m_KeepOriginalPositionXZ: 0
    m_HeightFromFeet: 0
    m_Mirror: 0
  m_EditorCurves: []
  m_EulerEditorCurves: []
  m_HasGenericRootTransform: 0
  m_HasMotionFloatCurves: 0
  m_Events: []
