%YAML 1.1
%TAG !u! tag:unity3d.com,2011:
--- !u!78 &1
TagManager:
  serializedVersion: 2
  tags:
  - Bullet
  layers:
  - Default
  - TransparentFX
  - Ignore Raycast
  - DeathZone
  - Water
  - UI
  - PhisicalCharacer
  - Ground
  - Floating
  - EnvironmentCollider
  - Player
  - Explosive
  - Bullet
  - 
  - 
  - 
  - 
  - 
  - 
  - 
  - 
  - 
  - 
  - 
  - 
  - 
  - 
  - 
  - 
  - 
  - 
  - 
  m_SortingLayers:
  - name: FarHorizont
    uniqueID: 1256176543
    locked: 0
  - name: Default
    uniqueID: 0
    locked: 0
  - name: BackGround
    uniqueID: 1070193527
    locked: 0
  - name: UI
    uniqueID: 4000416811
    locked: 0
  - name: Character
    uniqueID: 1435797783
    locked: 0
  - name: Ground
    uniqueID: 967724481
    locked: 0
  - name: ForeGround
    uniqueID: 4002815945
    locked: 0
